%YAML 1.1
%TAG !u! tag:unity3d.com,2011:
--- !u!1001 &100100000
Prefab:
  m_ObjectHideFlags: 1
  serializedVersion: 2
  m_Modification:
    m_TransformParent: {fileID: 0}
    m_Modifications: []
    m_RemovedComponents: []
  m_ParentPrefab: {fileID: 0}
  m_RootGameObject: {fileID: 1031499027142870}
  m_IsPrefabParent: 1
--- !u!1 &1031499027142870
GameObject:
  m_ObjectHideFlags: 0
  m_PrefabParentObject: {fileID: 0}
  m_PrefabInternal: {fileID: 100100000}
  serializedVersion: 5
  m_Component:
  - component: {fileID: 4141007679887182}
  - component: {fileID: 114970074340475038}
  m_Layer: 0
  m_Name: WayPoint13
  m_TagString: Untagged
  m_Icon: {fileID: 2800000, guid: 836d44d6696e79b4fbca8b2f3ea3918b, type: 3}
  m_NavMeshLayer: 0
  m_StaticEditorFlags: 0
  m_IsActive: 1
--- !u!4 &4141007679887182
Transform:
  m_ObjectHideFlags: 1
  m_PrefabParentObject: {fileID: 0}
  m_PrefabInternal: {fileID: 100100000}
  m_GameObject: {fileID: 1031499027142870}
  m_LocalRotation: {x: -0, y: -0, z: -0, w: 1}
  m_LocalPosition: {x: 145.09, y: -4.83, z: 0}
  m_LocalScale: {x: 2.0456836, y: 1.680648, z: 1}
  m_Children: []
  m_Father: {fileID: 0}
  m_RootOrder: 0
  m_LocalEulerAnglesHint: {x: 0, y: 0, z: 0}
--- !u!114 &114970074340475038
MonoBehaviour:
  m_ObjectHideFlags: 1
  m_PrefabParentObject: {fileID: 0}
  m_PrefabInternal: {fileID: 100100000}
  m_GameObject: {fileID: 1031499027142870}
  m_Enabled: 1
  m_EditorHideFlags: 0
  m_Script: {fileID: 11500000, guid: 135fd4af22c03ae48bf1f731155d6e11, type: 3}
  m_Name: 
  m_EditorClassIdentifier: 
  Next: {fileID: 114731612479581762, guid: 159923304acdaeb41b4f850695143d87, type: 2}
